{
    "$schema": "https://schema.management.azure.com/schemas/2019-04-01/deploymentParameters.json#",
    "contentVersion": "1.0.0.0",
    "parameters": {
        "resourceGroupName": {
            "value": "test-bicep-lock" 
        },
        "resourceGroupLocation": {
            "value": "centralindia"
        },
        "resourceGroupTags":{
            "value": {
                "Purpose"           :   "Demo",
                "Environment"       :   "Sandbox",
                "Is Free"           :   "Yes",
                "Cleanup"           :   "Yes",
                "MCQTemplate"       :   "Yes"
            }
        },
        "resourceGroupLock" : {
            "value": "ReadOnly"
        }
    }
}