{
    "$schema": "https://schema.management.azure.com/schemas/2018-05-01/subscriptionDeploymentTemplate.json#",
    "contentVersion": "1.0.0.0",
    "parameters": {
        "rgName": {
            "type": "string",
            "minLength":4,
            "maxLength":25,
            "metadata": {
                "description": "Specify the name of the resource group."
            }
        },
        "rgLocation": {
            "type": "string",
            "allowedValues": [
                "eastasia",
                "southeastasia",
                "centralus",
                "eastus",
                "eastus2",
                "westus",
                "northcentralus",
                "southcentralus",
                "northeurope",
                "westeurope",
                "japanwest",
                "japaneast",
                "brazilsouth",
                "australiaeast",
                "australiasoutheast",
                "southindia",
                "centralindia",
                "westindia",
                "canadacentral",
                "canadaeast",
                "uksouth",
                "ukwest",
                "westcentralus",
                "westus2",
                "koreacentral",
                "koreasouth",
                "francecentral",
                "francesouth",
                "australiacentral",
                "australiacentral2",
                "uaecentral",
                "uaenorth",
                "southafricanorth",
                "southafricawest",
                "switzerlandnorth",
                "switzerlandwest",
                "germanynorth",
                "germanywestcentral",
                "norwaywest",
                "norwayeast",
                "brazilsoutheast",
                "westus3",
                "swedencentral"
            ],
            "metadata": {
                "description": "Specify the location of the resource group."
            }
        },
        "rgTags": {
            "type": "object",
            "defaultValue": {},
            "metadata": {
                "description": "Specify the tagss of the resource group."
            }
        }
    },
    "variables": {},
    "resources": [
        {
            "comments"  :       "Creates a resource group",
            "type"      :       "Microsoft.Resources/resourceGroups",
            "apiVersion":       "2018-05-01",
            "location"  :       "[parameters('rgLocation')]",
            "name"      :       "[parameters('rgName')]",
            "properties":       {},
            "tags"      :       "[parameters('rgTags')]"
        }
    ],
    "outputs": {}
}